NBA dataset
…
OBPM:Cuadro ofensivo más/menos. Un cálculo de los puntos ofensivos por cada 100 posesiones que un jugador aportó por encima del promedio de la liga, traducido a un equipo promedio.

DBPM: Caja defensiva más/menos. Una estimación de la puntuación de caja de los puntos defensivos por cada 100 posesiones que un jugador aportó por encima del promedio de un jugador de la liga, traducido a un equipo promedio.

BPM:Caja Más/Menos Una estimación de la puntuación de caja de los puntos por cada 100 posesiones que un jugador aportó por encima del promedio de un jugador de la liga, traducido a un equipo promedio.

VORP: Valor sobre el jugador de reemplazo Una estimación de la puntuación de caja de los puntos por cada 100 posesiones del equipo que un jugador contribuyó por encima del nivel de reemplazo (-2.0), traducido a un equipo promedio y prorrateado a una temporada de 82 juegos.

Cargamos la tabla y las librerías de necesarias.

Procesamiento de los datos

Miramos los valores únicos de cada fila

## # A tibble: 485 x 28
##    Player Salary NBA_Country NBA_DraftNumber   Age Tm        G    MP   PER `TS%`
##    <chr>   <dbl> <chr>                 <dbl> <dbl> <chr> <dbl> <dbl> <dbl> <dbl>
##  1 Zhou ~ 8.16e5 China                    43    22 HOU      16    87   0.6 0.303
##  2 Zaza ~ 3.48e6 Georgia                  42    33 GSW      66   937  16.8 0.608
##  3 Zach ~ 1.23e7 USA                      19    36 SAC      59  1508  17.3 0.529
##  4 Zach ~ 3.20e6 USA                      13    22 CHI      24   656  14.6 0.499
##  5 Zach ~ 3.06e6 USA                      10    20 POR      62   979   8.2 0.487
##  6 Yogi ~ 1.31e6 USA                      62    24 DAL      79  2238  11.5 0.543
##  7 Xavie~ 7.42e4 USA                      62    30 BOS       2     7  -4.9 0    
##  8 Xavie~ 4.61e4 Canada                   62    23 MEM       5   118   0.9 0.315
##  9 Wilso~ 1.20e7 USA                      23    30 DEN      70  2200  11.1 0.543
## 10 Willy~ 1.44e6 Spain                    35    23 TOT      45   430  20.6 0.592
## # ... with 475 more rows, and 18 more variables: `3PAr` <dbl>, FTr <dbl>,
## #   `ORB%` <dbl>, `DRB%` <dbl>, `TRB%` <dbl>, `AST%` <dbl>, `STL%` <dbl>,
## #   `BLK%` <dbl>, `TOV%` <dbl>, `USG%` <dbl>, OWS <dbl>, DWS <dbl>, WS <dbl>,
## #   `WS/48` <dbl>, OBPM <dbl>, DBPM <dbl>, BPM <dbl>, VORP <dbl>

Miramos los únicos de columna player, para ver como se estructura.

## # A tibble: 483 x 1
##    `NBA_dataset$Player`
##    <chr>               
##  1 Zhou Qi             
##  2 Zaza Pachulia       
##  3 Zach Randolph       
##  4 Zach LaVine         
##  5 Zach Collins        
##  6 Yogi Ferrell        
##  7 Xavier Silas        
##  8 Xavier Rathan-Mayes 
##  9 Wilson Chandler     
## 10 Willy Hernangomez   
## # ... with 473 more rows
…
## [1] 2

Al hacer un conteo de números de jugadores repetidos y observamos que hay 2 repetidos.

Se eliminan y se guardan los datos.

## # A tibble: 483 x 28
##    Player Salary NBA_Country NBA_DraftNumber   Age Tm        G    MP   PER `TS%`
##    <chr>   <dbl> <chr>                 <dbl> <dbl> <chr> <dbl> <dbl> <dbl> <dbl>
##  1 Zhou ~ 8.16e5 China                    43    22 HOU      16    87   0.6 0.303
##  2 Zaza ~ 3.48e6 Georgia                  42    33 GSW      66   937  16.8 0.608
##  3 Zach ~ 1.23e7 USA                      19    36 SAC      59  1508  17.3 0.529
##  4 Zach ~ 3.20e6 USA                      13    22 CHI      24   656  14.6 0.499
##  5 Zach ~ 3.06e6 USA                      10    20 POR      62   979   8.2 0.487
##  6 Yogi ~ 1.31e6 USA                      62    24 DAL      79  2238  11.5 0.543
##  7 Xavie~ 7.42e4 USA                      62    30 BOS       2     7  -4.9 0    
##  8 Xavie~ 4.61e4 Canada                   62    23 MEM       5   118   0.9 0.315
##  9 Wilso~ 1.20e7 USA                      23    30 DEN      70  2200  11.1 0.543
## 10 Willy~ 1.44e6 Spain                    35    23 TOT      45   430  20.6 0.592
## # ... with 473 more rows, and 18 more variables: `3PAr` <dbl>, FTr <dbl>,
## #   `ORB%` <dbl>, `DRB%` <dbl>, `TRB%` <dbl>, `AST%` <dbl>, `STL%` <dbl>,
## #   `BLK%` <dbl>, `TOV%` <dbl>, `USG%` <dbl>, OWS <dbl>, DWS <dbl>, WS <dbl>,
## #   `WS/48` <dbl>, OBPM <dbl>, DBPM <dbl>, BPM <dbl>, VORP <dbl>
…
